<svg xmlns="http://www.w3.org/2000/svg" viewBox="0 0 899 190" width="899" height="190">
	<style>
		tspan { white-space:pre }
	</style>
	<path id="emplostore " fill="#336ecc" d="M50.2 72.65C58.75 72.65 65.95 77.9 65.95 87.05L33.85 87.05C35.35 77.75 41.8 72.65 50.2 72.65ZM90.25 109.25L62.95 109.25C60.85 113.75 56.8 117.35 49.6 117.35C41.35 117.35 34.6 112.25 33.7 101.3L91.75 101.3C92.05 98.75 92.2 96.2 92.2 93.8C92.2 68.3 74.95 52.1 50.5 52.1C25.6 52.1 8.2 68.6 8.2 95.15C8.2 121.7 25.9 138.2 50.5 138.2C71.35 138.2 86.2 125.6 90.25 109.25ZM221.05 137L246.55 137L246.55 88.1C246.55 65.6 233.2 52.4 212.5 52.4C200.35 52.4 189.85 59.15 184.3 68C178.6 57.95 168.4 52.4 155.8 52.4C144.85 52.4 136.3 57.05 131.35 63.8L131.35 53.3L105.7 53.3L105.7 137L131.35 137L131.35 91.55C131.35 80.6 137.65 74.6 147.4 74.6C157.15 74.6 163.45 80.6 163.45 91.55L163.45 137L188.95 137L188.95 91.55C188.95 80.6 195.25 74.6 205 74.6C214.75 74.6 221.05 80.6 221.05 91.55ZM290.2 65.15L290.2 53.3L264.55 53.3L264.55 176.9L290.2 176.9L290.2 125.3C294.85 132.35 303.7 138.2 316 138.2C336.55 138.2 352.9 121.4 352.9 95C352.9 68.6 336.55 52.1 316 52.1C303.7 52.1 294.85 57.8 290.2 65.15ZM326.8 95C326.8 108.35 318.1 115.85 308.35 115.85C298.75 115.85 290.05 108.5 290.05 95.15C290.05 81.8 298.75 74.45 308.35 74.45C318.1 74.45 326.8 81.65 326.8 95ZM366.4 137L392.05 137L392.05 26L366.4 26ZM492.55 95.15C492.55 68.6 473.65 52.1 449.05 52.1C424.6 52.1 405.55 68.6 405.55 95.15C405.55 121.7 424.15 138.2 448.75 138.2C473.35 138.2 492.55 121.7 492.55 95.15ZM431.65 95.15C431.65 80.9 439.75 74.3 449.05 74.3C458.05 74.3 466.45 80.9 466.45 95.15C466.45 109.25 457.9 116 448.75 116C439.45 116 431.65 109.25 431.65 95.15ZM574.15 112.7C573.7 81.5 528.4 90.95 528.4 77.6C528.4 73.55 531.7 71.15 537.7 71.15C544.9 71.15 549.25 74.9 550 80.6L573.7 80.6C572.05 64.1 560.05 52.1 538.45 52.1C516.55 52.1 504.4 63.8 504.4 78.05C504.4 108.8 550 99.05 550 112.55C550 116.3 546.55 119.3 539.95 119.3C532.9 119.3 527.65 115.4 527.05 109.55L501.7 109.55C502.9 125.75 517.9 138.2 540.25 138.2C561.25 138.2 574.15 127.25 574.15 112.7ZM593.95 107.9C593.95 129.65 606.1 137 623.5 137L636.55 137L636.55 115.25L627.4 115.25C621.7 115.25 619.6 113.15 619.6 108.2L619.6 74.6L636.4 74.6L636.4 53.3L619.6 53.3L619.6 32.9L593.95 32.9L593.95 53.3L583.75 53.3L583.75 74.6L593.95 74.6ZM732.7 95.15C732.7 68.6 713.8 52.1 689.2 52.1C664.75 52.1 645.7 68.6 645.7 95.15C645.7 121.7 664.3 138.2 688.9 138.2C713.5 138.2 732.7 121.7 732.7 95.15ZM671.8 95.15C671.8 80.9 679.9 74.3 689.2 74.3C698.2 74.3 706.6 80.9 706.6 95.15C706.6 109.25 698.05 116 688.9 116C679.6 116 671.8 109.25 671.8 95.15ZM772 98.15C772 83.75 779.05 79.55 791.2 79.55L798.25 79.55L798.25 52.4C787 52.4 777.85 58.4 772 67.25L772 53.3L746.35 53.3L746.35 137L772 137ZM847.45 72.65C856 72.65 863.2 77.9 863.2 87.05L831.1 87.05C832.6 77.75 839.05 72.65 847.45 72.65ZM887.5 109.25L860.2 109.25C858.1 113.75 854.05 117.35 846.85 117.35C838.6 117.35 831.85 112.25 830.95 101.3L889 101.3C889.3 98.75 889.45 96.2 889.45 93.8C889.45 68.3 872.2 52.1 847.75 52.1C822.85 52.1 805.45 68.6 805.45 95.15C805.45 121.7 823.15 138.2 847.75 138.2C868.6 138.2 883.45 125.6 887.5 109.25Z" />
</svg>